{
    "KPlugin": {
        "Authors": [
            {
                "Email": "alex.merry@kdemail.net",
                "Name": "Alex Merry",
                "Name[he]": "אלכס מרי",
                "Name[hi]": "एलेक्स मेरी",
                "Name[sa]": "एलेक्स् मेरी",
                "Name[ta]": "அலெக்ஸ் மெரி",
                "Name[x-test]": "xxAlex Merryxx"
            }
        ],
        "Category": "System",
        "Description": "Places, as seen in the file manager and in file dialogs.",
        "Description[ar]": "الأماكن، كما في مدير الملفات وحواريات الملفات.",
        "Description[az]": "Fayl menecerində və fayl dialoqlarında görünən Giriş Nöqtələri.",
        "Description[be]": "Размяшчэнні, якія паказваюцца ў кіраўніку файлаў і ў дыялогавых вокнах файлавых аперацый.",
        "Description[bg]": "Местата, както се виждат във файловия мениджър и файловите диалози.",
        "Description[ca@valencia]": "Llocs, com es veuen en el gestor de fitxers i en els diàlegs de fitxer.",
        "Description[ca]": "Llocs, com es veuen en el gestor de fitxers i en els diàlegs de fitxer.",
        "Description[cs]": "Umístění, jak je vidíte ve správci souborů a souborových dialozích.",
        "Description[da]": "Steder, som de ses i filhåndteringen og fildialoger.",
        "Description[de]": "Orte, wie sie in der Dateiverwaltung und in Dateiauswahl-Dialogen zu sehen sind.",
        "Description[en_GB]": "Places, as seen in the file manager and in file dialogues.",
        "Description[eo]": "Lokoj, kiel vidite en la dosieradministranto kaj en dosierdialogoj.",
        "Description[es]": "Lugares, como se ven en el gestor de archivos y en los diálogos de archivos.",
        "Description[et]": "Asukohad, nagu neid näeb failihalduris ja -dialoogides.",
        "Description[eu]": "Lekuak, fitxategi-kudeatzailean eta fitxategien elkarrizketa-koadroetan ikusi bezala.",
        "Description[fi]": "Tiedostonhallinnan ja tiedostovalintaikkunoiden erityissijainnit.",
        "Description[fr]": "Emplacements, tel que vus par le gestionnaire de fichiers et les boîtes de dialogue de fichiers.",
        "Description[gl]": "Os lugares tal como se ven no xestor de ficheiros e nos diálogos de ficheiros.",
        "Description[he]": "מקומות, כפי שהם מופיעים במנהל הקבצים ובחלוניות של קבצים.",
        "Description[hi]": "स्थान, जैसा कि फ़ाइल प्रबंधक और फ़ाइल संवाद में देखा गया है। ",
        "Description[hu]": "Helyek panel (ahogy a fájlkezelőben és a fájlmegnyitó ablakokban látható).",
        "Description[ia]": "Placias, tal como vidite in le gerente de file e in le dialogos de file",
        "Description[id]": "Tempat, seperti terlihat di file manager dan di dialog file.",
        "Description[is]": "Staðir, eins og sýnt er í skráastjóra og svargluggum.",
        "Description[it]": "Risorse, come si vedono nel gestore dei file e nelle finestre di selezione dei file.",
        "Description[ja]": "ファイルマネージャやファイル選択ダイアログに表示される場所。",
        "Description[ka]": "ადგილები, როგორც ისინი ჩანს ფაილების მმართველში და ფაილის ფანჯრებში.",
        "Description[ko]": "파일 관리자와 파일 대화 상자에 나타나는 위치입니다.",
        "Description[lt]": "Vietos, kaip jos yra matomos failų tvarkytuvėje ir failų dialoguose.",
        "Description[lv]": "Vietas, kas redzamas datņu pārvaldniekā un datņu logos.",
        "Description[nl]": "Plaatsen, zoals deze gezien worden in de bestandsbeheerder en in bestandsdialogen.",
        "Description[nn]": "Stadar, slik ein kan sjå dei i filhandsamaren og dialogvindauge for filer.",
        "Description[pa]": "ਥਾਵਾਂ, ਜਿਵੇਂ ਕਿ ਫਾਇਲ ਮੈਨੇਜਰ ਅਤੇ ਹੋਰ ਫਾਇਲ ਡਾਇਲਾਗ ਵਿੱਚ ਦਿਸਦੀਆਂ ਹਨ।",
        "Description[pl]": "Wyświetla miejsca, tak jak w przeglądarce plików i oknach dialogowych plików.",
        "Description[pt]": "Os locais vistos nas janelas e gestores de ficheiros.",
        "Description[pt_BR]": "Locais, como visto no gerenciador de arquivo e nos diálogos de arquivo.",
        "Description[ro]": "Locuri, așa cum sunt văzute în gestionarul de fișiere și în dialogurile de fișier.",
        "Description[ru]": "Точки входа, показываемые в диспетчере файлов и файловых диалогах.",
        "Description[sa]": "स्थानानि, यथा सञ्चिकाप्रबन्धके सञ्चिकासंवादेषु च दृश्यते ।.",
        "Description[sk]": "Miesta, ako sú vidieť v správcovi súborov a súborových dialógoch.",
        "Description[sl]": "Mesta, kot jih je mogoče videti v upravljalniku datotek in pogovornih oknih za datoteke.",
        "Description[sv]": "Platser som visas i filhanterare och fildialogrutor.",
        "Description[ta]": "கோப்பு உலாவியிலும் கோப்பு சாளரங்களிலும் காட்டப்படும் இடங்கள்",
        "Description[tr]": "Yerler, dosya yöneticisi ve dosya iletişim kutularında görüldüğü üzere.",
        "Description[uk]": "Місця, так, як їх показано у менеджері файлів і діалогових вікнах.",
        "Description[vi]": "Địa điểm, như trong trình quản lí tệp và các hộp thoại tệp.",
        "Description[x-test]": "xxPlaces, as seen in the file manager and in file dialogs.xx",
        "Description[zh_CN]": "提供文件管理器和文件对话框中显示的常用位置列表。",
        "Description[zh_TW]": "在檔案管理員與檔案對話框中看到的「書籤」項目。",
        "EnabledByDefault": true,
        "Icon": "folder-favorites",
        "License": "LGPL",
        "Name": "Places",
        "Name[ar]": "أماكن",
        "Name[ast]": "Llugares",
        "Name[az]": "Giriş Nöqtələri",
        "Name[be@latin]": "Miescy",
        "Name[be]": "Размяшчэнні",
        "Name[bg]": "Места",
        "Name[bn]": "স্থান",
        "Name[bs]": "Mjesta",
        "Name[ca@valencia]": "Llocs",
        "Name[ca]": "Llocs",
        "Name[cs]": "Místa",
        "Name[csb]": "Place",
        "Name[da]": "Steder",
        "Name[de]": "Orte",
        "Name[el]": "Τοποθεσίες",
        "Name[eo]": "Lokoj",
        "Name[es]": "Lugares",
        "Name[et]": "Asukohad",
        "Name[eu]": "Lekuak",
        "Name[fi]": "Sijainnit",
        "Name[fr]": "Emplacements",
        "Name[ga]": "Áiteanna",
        "Name[gl]": "Lugares",
        "Name[gu]": "જગ્યાઓ",
        "Name[he]": "מקומות",
        "Name[hi]": "स्थान",
        "Name[hne]": "प्लेसेस",
        "Name[hr]": "Mjesta",
        "Name[hsb]": "Městna",
        "Name[hu]": "Helyek",
        "Name[ia]": "Placias",
        "Name[id]": "Tempat",
        "Name[is]": "Staðir",
        "Name[it]": "Risorse",
        "Name[ja]": "場所",
        "Name[ka]": "ადგილები",
        "Name[kk]": "Орындар",
        "Name[km]": "កន្លែង",
        "Name[kn]": "ಸ್ಥಳಗಳು",
        "Name[ko]": "위치",
        "Name[ku]": "Cih",
        "Name[lt]": "Vietos",
        "Name[lv]": "Vietas",
        "Name[mai]": "स्थान",
        "Name[mk]": "Места",
        "Name[ml]": "സ്ഥലങ്ങള്‍",
        "Name[mr]": "जागा",
        "Name[nb]": "Steder",
        "Name[nds]": "Steden",
        "Name[nl]": "Locaties",
        "Name[nn]": "Stadar",
        "Name[or]": "ସ୍ଥାନଗୁଡ଼ିକ",
        "Name[pa]": "ਥਾਵਾਂ",
        "Name[pl]": "Miejsca",
        "Name[pt]": "Locais",
        "Name[pt_BR]": "Locais",
        "Name[ro]": "Locuri",
        "Name[ru]": "Точки входа",
        "Name[sa]": "स्थानाः",
        "Name[si]": "ස්ථාන",
        "Name[sk]": "Miesta",
        "Name[sl]": "Mesta",
        "Name[sr@ijekavian]": "мјеста",
        "Name[sr@ijekavianlatin]": "mjesta",
        "Name[sr@latin]": "mesta",
        "Name[sr]": "места",
        "Name[sv]": "Platser",
        "Name[ta]": "இடங்கள்",
        "Name[tg]": "Ҷойҳо",
        "Name[th]": "ที่หลัก ๆ",
        "Name[tr]": "Yerler",
        "Name[ug]": "ئورۇنلار",
        "Name[uk]": "Місця",
        "Name[vi]": "Địa điểm",
        "Name[wa]": "Plaeces",
        "Name[x-test]": "xxPlacesxx",
        "Name[zh_CN]": "常用位置",
        "Name[zh_TW]": "地方",
        "Website": "https://www.kde.org/plasma-desktop"
    }
}
